…
  ) %>%
  group_by(department_id) %>% 
  mutate_at(vars(starts_with("z_reciprocity")), mean, na.rm = T) %>% 
  ungroup() %>% 
  distinct(department_id, .keep_all = TRUE) %>% 
  #distinct(classid, .keep_all = TRUE) %>% 
  # mutate_at(
  #   vars(starts_with("z_reciprocity")),
  #   ~ scale(.) %>% as.vector
  # ) %>%
  # filter(reservation == 1) %>% 
  select(department_id, starts_with("z_reciprocity"))
```

    ## # A tibble: 100 x 5
    ##    department_id z_reciprocity_g1 z_reciprocity_g2 z_reciprocity_g3
    ##    <chr>                    <dbl>            <dbl>            <dbl>
    ##  1 IR001CS                  0.435            0.428            0.411
    ##  2 IR001EE                  0.310            0.356            0.48 
    ##  3 IR002CS                  0.440            0.422            0.463
    ##  4 IR002EE                  0.457            0.432            0.436
    ##  5 IR003CS                  0.414            0.304            0.435
    ##  6 IR003EE                  0.372            0.352            0.399
    ##  7 IR004CS                  0.472            0.448            0.423
    ##  8 IR004EE                  0.727            0.778            0.556
    ##  9 IR005CS                  0.470            0.465            0.473
    ## 10 IR005EE                  0.384            0.416            0.481
    ## # … with 90 more rows, and 1 more variable: z_reciprocity_g4 <dbl>
