…
    res_stu_0 = if_else(is.na(res_stu_0), 0L, res_stu_0),
    res_stu_1 = if_else(is.na(res_stu_1), 0L, res_stu_1)
  ) %>% 
  inner_join(class_info, by = "classid") %>% 
  mutate(
    b_seg_score = if_else(
      res_stdid == 0,
      (res_stu_0 / res_stu_1) * ((res_class_1 - res_stu_1) / (res_class_0 - res_stu_0 - 1)),
      (res_stu_1 / res_stu_0) * ((res_class_0 - res_stu_0) / (res_class_1 - res_stu_1 - 1))
    ),
    log = log(b_seg_score)
  )
```

    ## # A tibble: 16,325 x 9
    ##    classid stdid res_stdid res_stu_0 res_stu_1 res_class_0 res_class_1
    ##    <chr>   <chr>     <dbl>     <int>     <int>       <int>       <int>
    ##  1 IR001C… IR00…         0         4         6          29          20
    ##  2 IR001C… IR00…         1         2         2          29          20
    ##  3 IR001C… IR00…         1         3         1          29          20
    ##  4 IR001C… IR00…         0         5         5          29          20
    ##  5 IR001C… IR00…         0         5         5          29          20
    ##  6 IR001C… IR00…         0         4         5          29          20
    ##  7 IR001C… IR00…         1         0         1          29          20
    ##  8 IR001C… IR00…         0         1         3          29          20
    ##  9 IR001C… IR00…         1         3         0          29          20
    ## 10 IR001C… IR00…         0         4         0          29          20
    ## # … with 16,315 more rows, and 2 more variables: b_seg_score <dbl>, log <dbl>
